Game;SalePlatform;GameGenre;MaxPrice
Psychonauts;;2;
Tomb Raider;0;8;40
The Elders Scrolls 3: Morrowind;;2;40
Left 4 Dead 2;;2;
Psychonauts;;;
The Elders Scrolls 3: Morrowind;0;2;
Dark Souls: Prepare To Die;;2;
Dark Souls: Prepare To Die;;8;
Left 4 Dead 2;0;8;
Call of Duty 2;0;1;
Grand Theft Auto 5;0;8;
Dark Souls: Prepare To Die;0;;40
Left 4 Dead 2;;;40
Psychonauts;0;2;
Half-Life 2;0;1;
Left 4 Dead 2;0;8;
Grand Theft Auto 5;0;;40
Grand Theft Auto 5;;1;40
Dark Souls: Prepare To Die;;8;40
Half-Life 2;;2;
Dark Souls: Prepare To Die;0;8;
Call of Duty 2;0;;
Dark Souls: Prepare To Die;0;2;40
Half-Life 2;0;8;40
Dark Souls: Prepare To Die;;1;
abc;0;1;40
abc;0;;
Half-Life 2;0;2;40
Left 4 Dead 2;0;1;
Grand Theft Auto 5;;1;40
Psychonauts;;1;40
Psychonauts;;1;
abc;0;;
The Elders Scrolls 3: Morrowind;;2;40
abc;;1;
Call of Duty 2;0;2;
Left 4 Dead 2;;;40
Dark Souls: Prepare To Die;0;1;
Call of Duty 2;;;40
Dark Souls: Prepare To Die;;1;40
The Elders Scrolls 3: Morrowind;0;2;40
abc;;2;
Tomb Raider;;2;40
Grand Theft Auto 5;;1;40
Grand Theft Auto 5;;;
Half-Life 2;0;1;
Tomb Raider;;2;40
Grand Theft Auto 5;;8;
Call of Duty 2;;;40
The Elders Scrolls 3: Morrowind;;1;
abc;;2;
abc;0;8;
Dark Souls: Prepare To Die;0;;
Psychonauts;;8;
Dark Souls: Prepare To Die;0;2;
Dark Souls: Prepare To Die;;1;40
Call of Duty 2;;2;
Grand Theft Auto 5;0;2;
Half-Life 2;;2;40
Call of Duty 2;;1;
abc;0;8;40
Dark Souls: Prepare To Die;;1;40
The Elders Scrolls 3: Morrowind;;;40
The Elders Scrolls 3: Morrowind;0;;
Grand Theft Auto 5;0;2;40
Grand Theft Auto 5;0;1;
Counter-Strike: Global Offensive;;;40
Grand Theft Auto 5;;8;
Dark Souls: Prepare To Die;0;2;40
abc;0;;
The Elders Scrolls 3: Morrowind;0;8;
The Elders Scrolls 3: Morrowind;;2;40
abc;;;40
Tomb Raider;;8;
Call of Duty 2;;1;40
Half-Life 2;0;8;40
The Elders Scrolls 3: Morrowind;0;1;
The Elders Scrolls 3: Morrowind;0;8;40
Left 4 Dead 2;;2;
The Elders Scrolls 3: Morrowind;;;
Left 4 Dead 2;0;2;
Counter-Strike: Global Offensive;;2;40
Half-Life 2;;;
The Elders Scrolls 3: Morrowind;0;1;40
Grand Theft Auto 5;;;
Tomb Raider;0;8;40
Left 4 Dead 2;;1;
Grand Theft Auto 5;;1;40
Left 4 Dead 2;0;2;40
Left 4 Dead 2;0;8;
The Elders Scrolls 3: Morrowind;0;1;40
Psychonauts;;2;40
Call of Duty 2;0;1;
Tomb Raider;0;;40
Call of Duty 2;;;40
Grand Theft Auto 5;0;2;
Psychonauts;0;8;
Grand Theft Auto 5;;1;
Left 4 Dead 2;;2;40
Left 4 Dead 2;0;;
Call of Duty 2;0;1;
Tomb Raider;0;2;
Counter-Strike: Global Offensive;0;8;40
Dark Souls: Prepare To Die;;8;40
Half-Life 2;0;1;40
Grand Theft Auto 5;0;1;
abc;;1;
Left 4 Dead 2;;2;40
The Elders Scrolls 3: Morrowind;;8;
Half-Life 2;0;1;
Left 4 Dead 2;;1;40
Grand Theft Auto 5;;8;40
Grand Theft Auto 5;;2;
Call of Duty 2;;2;
abc;0;1;
Dark Souls: Prepare To Die;;;
Dark Souls: Prepare To Die;0;1;40
Dark Souls: Prepare To Die;0;2;
Tomb Raider;0;2;40
Counter-Strike: Global Offensive;;;
Tomb Raider;;;
Half-Life 2;;2;40
Dark Souls: Prepare To Die;;2;
Psychonauts;;8;
Call of Duty 2;0;2;40
The Elders Scrolls 3: Morrowind;;1;
Grand Theft Auto 5;0;2;
Tomb Raider;0;8;40
Grand Theft Auto 5;0;2;40
Call of Duty 2;;8;40
Grand Theft Auto 5;;;40
Counter-Strike: Global Offensive;;2;
Half-Life 2;;8;
Call of Duty 2;0;;
abc;;1;
Call of Duty 2;0;1;40
The Elders Scrolls 3: Morrowind;;1;40
Call of Duty 2;0;8;
abc;;2;
The Elders Scrolls 3: Morrowind;;8;
Call of Duty 2;0;;40
Left 4 Dead 2;0;2;
abc;;1;40
Psychonauts;0;;40
Psychonauts;;1;
Dark Souls: Prepare To Die;;;40
Left 4 Dead 2;;;40
abc;0;1;40
Psychonauts;0;8;40
Left 4 Dead 2;;;
Dark Souls: Prepare To Die;0;8;40
Grand Theft Auto 5;0;1;
Grand Theft Auto 5;;2;40
The Elders Scrolls 3: Morrowind;0;;40
abc;0;;40
Half-Life 2;;1;40
Psychonauts;0;2;40
The Elders Scrolls 3: Morrowind;0;2;40
Grand Theft Auto 5;;2;
Left 4 Dead 2;;2;
Tomb Raider;0;1;
Half-Life 2;0;1;40
Grand Theft Auto 5;;8;
Left 4 Dead 2;0;2;40
Tomb Raider;0;1;40
Counter-Strike: Global Offensive;0;2;
Tomb Raider;0;2;40
The Elders Scrolls 3: Morrowind;;8;
Call of Duty 2;;8;40
Counter-Strike: Global Offensive;0;1;40
Call of Duty 2;;;40
Counter-Strike: Global Offensive;0;1;40
Dark Souls: Prepare To Die;0;;40
Grand Theft Auto 5;0;2;
Psychonauts;0;;
Call of Duty 2;;2;40
Left 4 Dead 2;0;1;40
The Elders Scrolls 3: Morrowind;;;
abc;0;1;40
Psychonauts;;8;40
Half-Life 2;;8;
Dark Souls: Prepare To Die;;2;40
Tomb Raider;0;1;40
abc;;;40
Counter-Strike: Global Offensive;0;;40
Call of Duty 2;;1;40
Left 4 Dead 2;0;2;40
abc;;1;
The Elders Scrolls 3: Morrowind;0;1;40
Grand Theft Auto 5;0;;40
Dark Souls: Prepare To Die;;8;
Dark Souls: Prepare To Die;0;;
Tomb Raider;;8;40
The Elders Scrolls 3: Morrowind;0;;40
Dark Souls: Prepare To Die;;1;
Dark Souls: Prepare To Die;;2;40
Half-Life 2;;2;40
Dark Souls: Prepare To Die;0;2;40
Call of Duty 2;0;2;
Left 4 Dead 2;;2;
Call of Duty 2;0;;40
Tomb Raider;0;8;
Half-Life 2;;2;40
The Elders Scrolls 3: Morrowind;;1;
Grand Theft Auto 5;0;1;40
Call of Duty 2;;1;40
abc;0;2;
Tomb Raider;;2;
Call of Duty 2;;1;
Grand Theft Auto 5;0;1;
Grand Theft Auto 5;;1;40
Grand Theft Auto 5;;1;
Call of Duty 2;;1;40
The Elders Scrolls 3: Morrowind;;;
Psychonauts;0;8;
Left 4 Dead 2;0;8;40
Left 4 Dead 2;0;8;
The Elders Scrolls 3: Morrowind;0;1;
Tomb Raider;0;;
Counter-Strike: Global Offensive;;;
Half-Life 2;0;8;
Tomb Raider;0;2;
Call of Duty 2;;8;
Left 4 Dead 2;;;
Left 4 Dead 2;0;2;
Call of Duty 2;0;;
Counter-Strike: Global Offensive;0;2;40
Counter-Strike: Global Offensive;0;8;40
Call of Duty 2;;1;40
Call of Duty 2;;8;40
Tomb Raider;0;;40
Dark Souls: Prepare To Die;;1;40
Grand Theft Auto 5;0;1;
