Elapsed time;1 /CustomerWebCQRS/ (success);10 /CustomerWebCQRS/Product (success);11 /CustomerWebCQRS/Product/ProductDetails (success);12 /CustomerWebCQRS/Cart/AddProductToCart (success);13 /CustomerWebCQRS/Cart/CartDetails (success);14 /CustomerWebCQRS/Cart/CheckOut (success);15 /CheckOutCompleted (success);16 /CustomerWebCQRS/Orders/OrderList (success);17 /TestPaymentPortal (success);18 /TestPaymentPortal/Home/MakePayment (success);19 /CustomerWebCQRS/Orders/OrderList (success);2 /CustomerWebCQRS/Product (success);21 /CustomerWebCQRS/Orders/OrderDetails (success);22 /CustomerWebCQRS/Account/LogOff (success);3 /CustomerWebCQRS/Product (success);4 /CustomerWebCQRS/Product/ProductDetails (success);5 /CustomerWebCQRS/ (success);6 /CustomerWebCQRS/Account/Login (success);7 /CustomerWebCQRS/Account/Login (success);8 /CustomerWebCQRS/ (success);9 /CustomerWebCQRS/Product (success)
20:21:00,0;33.833333333332696;1.183333333333334;1.183333333333334;1.1500000000000008;1.1166666666666676;0.9833333333333347;0.9833333333333347;1.100000000000001;0.9833333333333347;0.9833333333333347;1.3333333333333335;33.08333333333274;0.966666666666668;0.966666666666668;32.59999999999943;14.333333333333625;1.3333333333333335;1.3333333333333335;1.3333333333333335;1.3166666666666669;1.183333333333334
20:22:00,0;33.28333333333273;1.2500000000000004;1.1666666666666674;1.2000000000000006;1.2833333333333337;1.266666666666667;1.183333333333334;1.1333333333333342;1.0666666666666678;0.966666666666668;1.3000000000000003;33.38333333333272;0.966666666666668;0.966666666666668;33.16666666666607;14.83333333333365;1.100000000000001;1.100000000000001;1.100000000000001;1.1166666666666676;1.2500000000000004
20:23:00,0;33.93333333333269;0.966666666666668;1.0500000000000012;1.0500000000000012;1.1500000000000008;1.1500000000000008;1.2333333333333338;1.2000000000000006;1.266666666666667;1.3333333333333335;1.5999999999999992;34.04999999999935;1.1333333333333342;1.1333333333333342;34.21666666666601;15.133333333333665;1.0333333333333345;0.966666666666668;0.966666666666668;0.966666666666668;0.966666666666668
20:24:00,0;34.299999999999336;1.1666666666666674;1.1333333333333342;1.1333333333333342;0.966666666666668;0.966666666666668;0.966666666666668;1.0500000000000012;1.0500000000000012;1.0833333333333344;1.4666666666666663;34.28333333333267;1.2333333333333338;1.2000000000000006;34.08333333333268;15.333333333333675;1.3000000000000003;1.3333333333333335;1.2833333333333337;1.266666666666667;1.266666666666667
20:25:00,0;33.366666666666056;1.2500000000000004;1.2833333333333337;1.1666666666666674;1.3000000000000003;1.2166666666666672;1.2166666666666672;1.100000000000001;1.0666666666666678;1.0666666666666678;1.3000000000000003;33.366666666666056;1.016666666666668;1.0500000000000012;33.54999999999938;15.050000000000328;1.0500000000000012;1.0833333333333344;1.1333333333333342;1.1500000000000008;1.1500000000000008
20:26:00,0;33.7333333333327;0.966666666666668;0.966666666666668;1.0833333333333344;1.1166666666666676;1.2000000000000006;1.2000000000000006;1.2500000000000004;1.2333333333333338;1.2333333333333338;1.5166666666666662;33.61666666666604;1.100000000000001;1.0000000000000013;33.716666666666036;14.90000000000032;1.0000000000000013;1.0000000000000013;0.966666666666668;0.966666666666668;0.966666666666668
20:27:00,0;34.11666666666601;1.2166666666666672;1.2000000000000006;1.100000000000001;1.0000000000000013;0.966666666666668;0.966666666666668;1.0333333333333345;1.0833333333333344;1.0833333333333344;1.5333333333333328;34.383333333332665;1.3000000000000003;1.35;34.09999999999935;15.266666666667005;1.3000000000000003;1.3000000000000003;1.3166666666666669;1.2833333333333337;1.2166666666666672
20:28:00,0;34.08333333333268;1.183333333333334;1.2000000000000006;1.3000000000000003;1.3000000000000003;1.3000000000000003;1.2333333333333338;1.1500000000000008;1.0666666666666678;1.0000000000000013;1.3000000000000003;33.74999999999937;0.9833333333333347;1.0333333333333345;33.96666666666602;15.216666666667003;1.0833333333333344;1.0833333333333344;1.100000000000001;1.1333333333333342;1.2000000000000006
20:29:00,0;33.949999999999356;0.9833333333333347;0.9833333333333347;0.9833333333333347;1.0833333333333344;1.1166666666666676;1.183333333333334;1.2500000000000004;1.3000000000000003;1.3000000000000003;1.6166666666666658;34.21666666666601;1.2166666666666672;1.1333333333333342;34.149999999999345;15.116666666666998;1.016666666666668;1.0000000000000013;1.0000000000000013;0.9833333333333347;0.966666666666668
20:30:00,0;34.383333333332665;1.2333333333333338;1.2166666666666672;1.2166666666666672;1.0000000000000013;1.0000000000000013;0.966666666666668;0.9833333333333347;1.016666666666668;1.0833333333333344;1.4499999999999997;34.183333333332676;1.183333333333334;1.266666666666667;34.09999999999935;15.316666666667007;1.35;1.3000000000000003;1.3000000000000003;1.3166666666666669;1.3000000000000003
20:31:00,0;0.4666666666666666;0.06666666666666667;0.016666666666666666;;0.21666666666666665;;0.03333333333333333;;;;0.016666666666666666;0.6666666666666671;0.016666666666666666;;0.6666666666666671;0.19999999999999998;0.03333333333333333;0.06666666666666667;;;0.03333333333333333
