Elapsed time;1 /CustomerWebStandard/;10 /CustomerWebStandard/Product;11 /CustomerWebStandard/Product/ProductDetails;12 /CustomerWebStandard/Cart/AddProductToCart;13 /CustomerWebStandard/Cart/CartDetails;14 /CustomerWebStandard/Cart/CheckOut;15 /CheckOutCompleted;16 /CustomerWebStandard/Orders/OrderList;17 /TestPaymentPortal;18 /TestPaymentPortal/Home/MakePayment;19 /CustomerWebStandard/Orders/OrderList;2 /CustomerWebStandard/Product;20 /CustomerWebStandard/Orders/OrderDetails;21 /CustomerWebStandard/Account/LogOff;3 /CustomerWebStandard/Product;4 /CustomerWebStandard/Product/ProductDetails;5 /CustomerWebStandard/;6 /CustomerWebStandard/Account/Login;7 /CustomerWebStandard/Account/Login;8 /CustomerWebStandard/;9 /CustomerWebStandard/Product
20:44:00,0;1167.2633451957302;1170.075471698113;1377.6326530612246;1759.8918918918919;1835.7567567567567;3793.837837837838;3043.864864864865;1876.1351351351352;777.4864864864863;3807.027027027027;2009.6216216216217;1668.76;588.5945945945946;322.3783783783784;1271.6399999999999;1304.787610619469;447.5810810810811;792.5405405405405;891.4189189189187;687.7027027027027;1222.5692307692307
20:45:00,0;1203.5914110429446;1093.7413793103449;1142.5322580645166;1761.9054054054054;1573.4054054054054;2327.734374999999;2046.6607142857142;1844.0754716981132;2106.1250000000005;3259.972972972973;1162.6216216216217;1654.4332925336591;713.5135135135135;410.0270270270271;1229.1970443349749;1312.5322128851537;498.43243243243245;383.9189189189189;581.2432432432431;512.7567567567568;965.5
20:46:00,0;1230.2053462940453;1094.5405405405406;1152.8648648648648;1606.081081081081;1622.7027027027027;2611.8297872340427;2272.5818181818186;1749.3793103448277;1631.920634920635;3582.5479452054797;1413.5901639344263;1798.693528693529;1222.9230769230767;640.34;1306.0692588092334;1304.180592991914;443.175;512.4864864864865;624.5675675675676;531.4864864864865;1347.4324324324325
20:47:00,0;1027.0355160932293;1038.542372881356;827.0566037735849;1478.6603773584911;1328.2244897959183;2163.9302325581393;1820.6486486486488;1750.2432432432433;1690.7837837837837;3327.21052631579;1399.3600000000004;1438.6380638063806;860.1016949152543;574.8852459016392;1036.9032967032972;1082.0742574257426;868.2112676056338;606.7397260273974;620.0833333333334;623.3529411764706;1118.9047619047617
20:48:00,0;1317.0358910891111;1359.423076923077;1196.98275862069;1830.2280701754387;1712.4642857142858;2035.6491228070167;1727.1612903225807;1598.1016949152543;1707.433962264151;2907.705882352941;1377.3999999999999;1798.5272952853604;1225.8648648648648;615.4324324324324;1294.8818407960205;1425.5056497175137;946.4324324324324;777.8947368421053;928.6410256410256;1114.5813953488373;1504.6458333333333
20:49:00,0;1323.4955300127717;1161.1891891891896;1711.6756756756756;1448.3947368421052;1925.7906976744187;1895.1458333333337;1755.2448979591836;1520.2352941176475;1492.111111111111;3240.8627450980393;1663.9473684210527;1846.4352791878173;1538.867924528302;997.0961538461538;1373.562182741116;1403.311239193084;1193.1041666666667;1070.5434782608693;1099.3000000000002;1181.1351351351354;1644.8378378378377
20:50:00,0;1159.7022274325905;1110.188679245283;1071.7307692307697;1430.3125;1464.1521739130435;1778.0975609756097;1600.918918918919;1526.842105263158;1415.6341463414635;2609.8260869565215;1366.8431372549019;1582.1325443786977;1092.2142857142856;998.8181818181813;1156.7014218009494;1196.7180156657964;1096.1964285714278;961.4655172413793;1071.2666666666669;978.9016393442623;1445.8727272727272
20:51:00,0;1330.3790931989902;1295.1764705882354;1602.9038461538462;1506.1538461538462;1737.576923076923;1821.4074074074074;1408.9636363636364;1462.2115384615386;1351.7499999999998;2663.6739130434794;1568.560975609756;1818.7118012422357;1461.7948717948718;1163.7560975609756;1333.626716604242;1390.8133704735383;1302.772727272727;1099.6818181818185;1449.8958333333337;1244.2200000000003;1907.2641509433959
20:52:00,0;1452.9839357429732;1513.8181818181818;1790.0681818181818;1863.3478260869565;1721.5;2156.152173913044;1540.5531914893618;1733.7916666666667;1673.7906976744187;3378.2608695652175;2009.6521739130435;2041.9877551020402;1782.2826086956522;998.0;1503.1486486486488;1550.5492537313437;1109.1891891891894;1230.1891891891892;1402.972972972973;1316.7297297297298;1909.35
20:53:00,0;1302.6268472906397;1098.2173913043478;1537.054054054054;1524.153846153846;1267.6744186046512;1914.5;1408.4782608695655;1374.8541666666663;1335.5094339622642;2759.490196078432;1313.9999999999998;1689.9535452322739;1431.5;1154.8367346938776;1301.45945945946;1281.4033613445374;1265.8392857142862;1291.566037735849;1434.867924528302;1086.5200000000002;1655.2173913043478
20:54:00,0;1490.121212121212;;1552.3333333333333;;;;;;;2641.6;1935.0;1826.2432432432433;1822.3333333333333;1510.0;1606.9354838709678;1564.25;1627.0;1317.3333333333333;;1754.6666666666667;1512.75
