Elapsed time;BrowsingUsers;BuyingUsers
20:00:00,0;29.8635831381733;9.93673965936739
20:01:00,0;30.0;10.0
20:02:00,0;30.0;10.0
20:03:00,0;30.0;10.0
20:04:00,0;30.0;10.0
20:05:00,0;30.0;10.0
20:06:00,0;30.0;10.0
20:07:00,0;30.0;10.0
20:08:00,0;30.0;10.0
20:09:00,0;30.0;10.0
20:10:00,0;17.33333333333333;6.4
