Elapsed time;Server Hits per Second
21:03:00,0;30.166666666666234
21:04:00,0;32.899999999999416
21:05:00,0;33.74999999999937
21:06:00,0;33.61666666666604
21:07:00,0;34.88333333333264
21:08:00,0;35.03333333333263
21:09:00,0;34.59999999999932
21:10:00,0;34.966666666665965
21:11:00,0;34.8999999999993
21:12:00,0;34.66666666666598
21:13:00,0;0.6500000000000004
