Number of active threads;1 /CustomerWebStandard/;10 /CustomerWebStandard/Product;11 /CustomerWebStandard/Product/ProductDetails;12 /CustomerWebStandard/Cart/AddProductToCart;13 /CustomerWebStandard/Cart/CartDetails;14 /CustomerWebStandard/Cart/CheckOut;15 /CheckOutCompleted;16 /CustomerWebStandard/Orders/OrderList;17 /TestPaymentPortal;18 /TestPaymentPortal/Home/MakePayment;19 /CustomerWebStandard/Orders/OrderList;2 /CustomerWebStandard/Product;20 /CustomerWebStandard/Orders/OrderDetails;21 /CustomerWebStandard/Account/LogOff;3 /CustomerWebStandard/Product;4 /CustomerWebStandard/Product/ProductDetails;5 /CustomerWebStandard/;6 /CustomerWebStandard/Account/Login;7 /CustomerWebStandard/Account/Login;8 /CustomerWebStandard/;9 /CustomerWebStandard/Product;Average 1 /CustomerWebStandard/;Average 10 /CustomerWebStandard/Product;Average 11 /CustomerWebStandard/Product/ProductDetails;Average 12 /CustomerWebStandard/Cart/AddProductToCart;Average 13 /CustomerWebStandard/Cart/CartDetails;Average 14 /CustomerWebStandard/Cart/CheckOut;Average 15 /CheckOutCompleted;Average 16 /CustomerWebStandard/Orders/OrderList;Average 17 /TestPaymentPortal;Average 18 /TestPaymentPortal/Home/MakePayment;Average 19 /CustomerWebStandard/Orders/OrderList;Average 2 /CustomerWebStandard/Product;Average 20 /CustomerWebStandard/Orders/OrderDetails;Average 21 /CustomerWebStandard/Account/LogOff;Average 3 /CustomerWebStandard/Product;Average 4 /CustomerWebStandard/Product/ProductDetails;Average 5 /CustomerWebStandard/;Average 6 /CustomerWebStandard/Account/Login;Average 7 /CustomerWebStandard/Account/Login;Average 8 /CustomerWebStandard/;Average 9 /CustomerWebStandard/Product
4;;;;;;;;;;;;;;;;;51.282051282051285;;;;;;;;;;;;;;;;;;;;;;;;;
16;427.22680959969097;;;;;;;;;;;;;;;;640.0;;;;;;;;;;;;;;;;;;;;;;;;;
17;809.5238095238095;;;;;;;;;;;;;;;;;;;;;;;;;;;;;;;;;;;;;;;;;
20;833.3333333333334;;;;;;;;;;;38.684719535783366;;;;;;;;;;;;;;;;;;;;;;;;;;;;;;
21;;;;;;;;;;;;44.0251572327044;;;43.84133611691023;;;;;;;;;;;;;;;;;;;;;;;;;;;
22;;;;;;;;;;;;46.31578947368421;;;;;916.6666666666666;;;;;;;;;;;;;;;;;;;;;;;;;
23;1097.7272727272727;;;;;;;;;;;;;;49.51566555431961;;1095.2380952380952;;;;;;;;;;;;;;;;;;;;;;;;;
24;1142.857142857143;;;;;;;;;;;;;;;;;;;52.40174672489083;;;;;;;;;;;;;;;;;;;;;;
25;;;;;;;;;;;;54.46623093681917;54.34782608695652;;;;;;;;;;;;;;;;;;;;;;;;;;;;;
26;;;;;;;;;;;;;;;56.83066897270025;;;;;;;;;;;;;;;;;;;;;;;;;;;
27;1713.4615384615386;;;;;;;;;;;;;;59.945886805843045;;;;;;;;;;;;;;;;;;;;;;;;;;;
28;965.5172413793103;;;;;;;;;;;;;;;;;63.63636363636363;;;;;;;;;;;;;;;;;;;;;;;;
29;;;;;;;;;;;;65.75963718820861;;;65.9090909090909;;;;;;;;;;;;;;;;;;;;;;;;;;;
30;1071.4285714285713;;;;;;;;;;;109.09090909090908;;;;;1034.4827586206898;;;;;;;;;;;;;;;;;;;;;;;;;
31;865.6432748538011;101.63934426229508;;;;;;;;;;217.88939818351582;;;;;;1382.3099415204679;;;;;;;;;;;;;;;;;;;;;;;;
32;;;285.7142857142857;;;;;;;;;;;;;;;;;;;;;;;;;;;;;;;;;;;;;;;
33;352.9512697323267;;;;;;;;;;;;;;;;;354.83870967741933;;;;;;;;;;;;;;;;;;;;;;;;
34;1700.0;;;;;;;;;;;;;;;;365.59139784946234;;;;;;;;;;;;;;;;;;;;;;;;;
35;1666.6666666666667;;;;;;;;;;;294.11764705882354;;;648.1481481481482;;1666.6666666666667;5000.0;432.0987654320988;;;;;;;;;;;;;;;;;;;;;;;
36;1480.6451612903224;679.2452830188679;;;;;;;;;;269.20529801324506;;;;;1384.6153846153845;;;;;;;;;;;;;;;;;;;;;;;;;
37;1608.695652173913;;;;;;;;;;;223.6234394169012;;;685.1851851851852;755.1020408163265;;3363.6363636363635;;;;;;;;;;;;;;;;;;;;;;;;
38;;;;;;;;;;;;;;1187.5;1266.6666666666667;;;;;;;;;;;;;;;;;;;;;;;;;;;
39;1751.534007432374;;;;;;;;;;;;;;;;;;;;;;;;;;;;;;;;;;;;;;;;;
40;4491.778739697702;1366.6436342540633;935.2657486093682;248.75356281052052;607.0674696291507;104.1576304147507;1498.3996980674538;825.1431906405139;2066.02426237908;2299.758113667602;663.8612482796497;214.3762337855804;858.0142618607973;6599.193907547002;1675.2159906720183;1103.9670353626018;2147.306471779748;4865.132390697427;790.1073821468407;5321.612951025188;237.65318830455354;4472.780565772518;1359.2200500668885;932.7770456863985;248.75356281052052;607.0674696291507;104.1576304147507;1498.3996980674538;825.1431906405139;2066.02426237908;2299.758113667602;663.8612482796497;214.1077312084021;854.923237107821;6578.299336475392;1671.6674265919694;1103.7974364347717;2109.9038271778873;4799.049757648015;788.7564062347096;5301.653817675566;237.65318830455354
